#FIG 3.2
Landscape
Center
Metric
A4      
100.00
Single
-2
1200 2
2 3 0 1 0 5 50 0 20 0.000 0 0 -1 0 0 5
	 10350 2700 9270 4500 10350 4770 11430 4500 10350 2700
2 3 0 1 0 21 50 0 20 0.000 0 0 -1 0 0 5
	 10350 2700 8550 4050 8910 4590 9270 4500 10350 2700
2 3 0 1 0 21 50 0 20 0.000 0 0 -1 0 0 5
	 10350 2700 11430 4500 11790 4590 12150 4050 10350 2700
2 3 0 1 0 21 50 0 20 0.000 0 0 -1 0 0 5
	 8910 4590 10350 5040 10350 4770 9270 4500 8910 4590
2 3 0 1 0 21 50 0 20 0.000 0 0 -1 0 0 5
	 10350 5040 10350 4770 11430 4500 11790 4590 10350 5040
4 0 0 48 0 0 100 0.0000 4 1035 720 9990 4455 3\001
4 0 0 48 0 0 80 5.5851 4 825 570 8730 4095 7\001
4 0 0 48 0 0 80 0.8727 4 825 570 11610 4410 5\001
