#FIG 3.2
Landscape
Center
Metric
A4      
100.00
Single
-2
1200 2
2 4 0 2 0 7 50 0 -1 0.000 0 0 7 0 0 5
	 9900 7200 1350 7200 1350 1350 9900 1350 9900 7200
2 2 0 1 0 7 52 0 20 0.000 0 0 -1 0 0 5
	 1800 1935 2835 1935 2835 2295 1800 2295 1800 1935
2 2 0 1 0 7 52 0 20 0.000 0 0 -1 0 0 5
	 3330 3870 4320 3870 4320 4275 3330 4275 3330 3870
2 2 0 1 0 7 52 0 20 0.000 0 0 -1 0 0 5
	 5760 3465 6885 3465 6885 3825 5760 3825 5760 3465
2 2 0 1 0 7 52 0 20 0.000 0 0 -1 0 0 5
	 7110 4545 8235 4545 8235 4905 7110 4905 7110 4545
2 2 0 1 0 7 52 0 20 0.000 0 0 -1 0 0 5
	 8640 2115 9495 2115 9495 2475 8640 2475 8640 2115
2 2 0 1 0 7 52 0 20 0.000 0 0 -1 0 0 5
	 7830 6075 9315 6075 9315 6435 7830 6435 7830 6075
2 2 0 1 0 7 52 0 20 0.000 0 0 -1 0 0 5
	 4860 5985 5850 5985 5850 6345 4860 6345 4860 5985
2 2 0 1 0 7 52 0 20 0.000 0 0 -1 0 0 5
	 1980 5850 3645 5850 3645 6255 1980 6255 1980 5850
3 2 0 2 0 7 50 0 -1 0.000 0 0 0 6
	 4680 1350 3960 3150 3150 2610 2790 4230 1710 3780 1350 4500
	 0.000 -1.000 -1.000 -1.000 -1.000 0.000
3 2 0 2 0 7 50 0 -1 0.000 0 0 0 6
	 4590 1800 6120 2430 7650 2070 8640 3690 8640 5130 9900 5850
	 0.000 -1.000 -1.000 -1.000 -1.000 0.000
3 2 0 2 0 7 50 0 -1 0.000 0 0 0 5
	 8550 4950 8010 5400 6750 6300 7020 6840 6390 7200
	 0.000 -1.000 -1.000 -1.000 0.000
3 2 0 2 0 7 50 0 -1 0.000 0 0 0 11
	 1350 4950 2430 4770 3420 5130 4140 4680 5130 4950 5940 4590
	 6570 4770 7200 4320 7290 3510 7920 3060 8280 2700
	 0.000 -1.000 -1.000 -1.000 -1.000 -1.000 -1.000 -1.000
	 -1.000 -1.000 0.000
3 2 0 2 0 7 50 0 -1 0.000 0 0 0 4
	 5760 2340 4950 3330 5580 3960 5220 4950
	 0.000 -1.000 -1.000 0.000
3 2 0 2 0 7 50 0 -1 0.000 0 0 0 4
	 4320 4680 4680 5760 4140 6570 4950 7200
	 0.000 -1.000 -1.000 0.000
3 2 0 2 0 7 50 0 -1 0.000 0 0 0 4
	 6390 4770 6840 5310 6120 6030 6750 6300
	 0.000 -1.000 -1.000 0.000
4 0 0 50 0 0 14 0.0000 4 195 855 1890 2160 Foret (M)\001
4 0 0 50 0 0 14 0.0000 4 195 1365 7920 6300 Montagne (TD)\001
4 0 0 50 0 0 14 0.0000 4 195 840 3420 4140 Plaine (F)\001
4 0 0 50 0 0 14 0.0000 4 195 975 5850 3690 Plaine (TF)\001
4 0 0 50 0 0 14 0.0000 4 195 1470 2070 6120 Marecages (TD)\001
4 0 0 50 0 0 14 0.0000 4 195 855 4950 6210 Foret (M)\001
4 0 0 50 0 0 14 0.0000 4 195 1020 7200 4770 Dessert (D)\001
4 0 0 50 0 0 14 0.0000 4 195 720 8730 2340 Mer (D)\001
